87 54 70 81 56 41 6 1 67 85 2 65 15 79 100 62 2 
98 45 64 13 0 39 19 39 52 14 85 78 33 27 81 22 36 
51 16 76 73 16 75 23 31 11 85 36 2 46 99 92 100 97 
26 24 54 48 66 97 39 88 21 5 8 71 72 98 83 43 89 
64 19 18 13 19 42 93 40 80 91 71 25 43 56 6 12 0 
100 30 93 97 39 40 13 17 71 41 37 7 26 43 29 88 39 
55 100 37 22 5 43 52 45 61 58 80 83 70 72 61 5 0 
42 15 83 43 24 60 72 61 56 91 35 0 4 47 58 35 26 
84 25 29 3 85 45 7 9 22 52 73 70 0 93 46 25 52 
